{
    {
        "status": 400,
        "data": {},
        "error": [{
            "code":"BSL-12070",
            "message":"Invalid Resource Type field sourceSystem MCSS"
            }
        ]
    }
}