{
    "status":200,
    "data":[
        {
            "resources" : [ 
                {
                    "number" : "===================================================================================================Some string which is longer than 255 characters================================================================================================================",
                    "type" : "PSTN",
                    "status" : "AVAILABLE"
                }, 
                {
                    "number" : "31202600150",
                    "type" : "PSTN",
                    "status" : "AVAILABLE"
                }, 
                {
                    "number" : "31202600152",
                    "type" : "PSTN",
                    "status" : "AVAILABLE"
                }, 
                {
                    "number" : "31202600153",
                    "type" : "PSTN",
                    "status" : "AVAILABLE"
                }, 
                {
                    "number" : "31202600154",
                    "type" : "PSTN",
                    "status" : "AVAILABLE"
                } 
            ],
            "paginationData" : {
                "pageSize" : 5,
                "pageNumber" : 1,
                "paginationCursorInfoKey" : "3776954160",
                "numberOfRows" : 45
            }
        }
    ],
    "error": [] 
} 