{
  "mmdoc__Document_Solution__c" : [ {
    "mmdoc__Actions__r" : [ {
      "RecordType" : {
        "Id" : "0125r000000GtvnAAC",
        "Name" : "Delete Google File"
      },
      "Id" : "aFD5r000000Gma9GAC",
      "mmdoc__Create_Subfolder__c" : false,
      "mmdoc__Send_Notification_Email__c" : true,
      "mmdoc__Role__c" : "Owner",
      "mmdoc__Type__c" : "User",
      "mmdoc__Save_as_Activity__c" : false,
      "RecordTypeId" : "0125r000000GtvnAAC",
      "mmdoc__Document_Solution__c" : "aFG5r000000CaR7GAK",
      "mmdoc__Subfolder_Path__c" : null,
      "mmdoc__Root_Folder_Id__c" : null,
      "mmdoc__Domain__c" : null,
      "mmdoc__Email_Address__c" : null,
      "mmdoc__Value__c" : null,
      "mmdoc__To__c" : null,
      "mmdoc__Object_Name__c" : null,
      "mmdoc__From__c" : null,
      "mmdoc__Field_Name__c" : null,
      "mmdoc__Email_Template__c" : null,
      "mmdoc__CC__c" : null,
      "mmdoc__BCC__c" : null
    } ],
    "mmdoc__Button_Configurations__r" : [ {
      "Id" : "aFE5r0000000006GAA",
      "mmdoc__Display_Condition__c" : "Brand__c = 'Ziggo'",
      "mmdoc__Document_Format__c" : "PDF",
      "mmdoc__Save_As__c" : "Attachment",
      "mmdoc__Document_Template__c" : "aFH5r0000008OI5GAM",
      "mmdoc__Object_Name__c" : "Opportunity",
      "mmdoc__Document_Solution__c" : "aFG5r000000CaR7GAK"
    } ],
    "mmdoc__Document_Templates__r" : [ {
      "Id" : "aFH5r0000008OI5GAM",
      "mmdoc__Template_Document_Id__c" : "1kjHxXwAVUuBsz_Q0KUtu3qHGZphD5m_4H5uRIyreOdI",
      "mmdoc__Template_Type__c" : "Google Doc",
      "Name" : "Ziggo Quote",
      "mmdoc__Document_Solution__c" : "aFG5r000000CaR7GAK"
    }, {
      "Id" : "aFH5r0000008OIAGA2",
      "mmdoc__Template_Document_Id__c" : "1HksOf3IzCHMV2IJqH6ksj0TFEFFvlETa-PglWf-aW98",
      "mmdoc__Template_Type__c" : "Google Doc",
      "Name" : "Ziggo Order Confirmation",
      "mmdoc__Document_Solution__c" : "aFG5r000000CaR7GAK"
    } ],
    "mmdoc__Document_Query__r" : {
      "mmdoc__GraphQL_Variable__r" : {
        "Id" : "aFK5r000000000kGAA",
        "mmdoc__Variable_Meta__c" : "[{\"name\":\"recordId\",\"type\":\"ID\",\"value\":\"{!recordId}\",\"fixed\":true},{\"name\":\"currentUserId\",\"type\":\"ID\",\"value\":\"{!currentUserId}\",\"fixed\":true},{\"name\":\"requestId\",\"type\":\"ID\",\"value\":\"{!requestId}\",\"fixed\":true},{\"name\":\"accountId\",\"type\":\"ID\",\"value\":\"{!Record.AccountId}\"},{\"name\":\"oppId\",\"type\":\"STRING\",\"value\":\"{!Record.Id}\"}]",
        "mmdoc__Variable_Definition__c" : "{\n\t\"recordId\": \"{!recordId}\",\n\t\"currentUserId\": \"{!currentUserId}\",\n\t\"requestId\": \"{!requestId}\",\n\t\"accountId\": \"{!Record.AccountId}\",\n\t\"oppId\": \"{!Record.Id}\"\n}",
        "Name" : "aFK5r000000000k"
      },
      "Id" : "aFJ5r0000004C93GAE",
      "mmdoc__GraphQL_Variable__c" : "aFK5r000000000kGAA",
      "mmdoc__Document_Meta__c" : "[{\"id\":\"8fdb2890-2dae-4696-ad75-a29f57418134\",\"name\":\"Opportunity\",\"object\":{\"name\":\"Opportunity\",\"label\":\"Opportunity\"},\"filter\":{\"groupOperator\":\"AND\",\"logic\":null,\"elements\":[{\"field\":{\"dataType\":\"ID\",\"fieldType\":\"ID\",\"label\":\"Opportunity ID\",\"name\":\"Id\",\"objectName\":\"Opportunity\"},\"operator\":{\"value\":\"=\",\"label\":\"equals\"},\"value\":{\"type\":\"VARIABLE\",\"value\":\"$recordId\"},\"id\":\"abd4ead3-f776-4413-9c91-f40e8093ddb4\"}]},\"fields\":[{\"dataType\":\"ID\",\"fieldType\":\"ID\",\"label\":\"Opportunity ID\",\"name\":\"Id\",\"objectName\":\"Opportunity\"},{\"dataType\":\"STRING\",\"fieldType\":\"STRING\",\"label\":\"Name\",\"name\":\"Name\",\"objectName\":\"Opportunity\"},{\"dataType\":\"STRING\",\"fieldType\":\"STRING\",\"label\":\"Opportunity Number\",\"name\":\"Opportunity_Number__c\",\"objectName\":\"Opportunity\"},{\"dataType\":\"STRING\",\"fieldType\":\"STRING\",\"label\":\"CloseDateFormated\",\"name\":\"CloseDateFormated__c\",\"objectName\":\"Opportunity\"},{\"dataType\":\"DATE\",\"fieldType\":\"DATE\",\"label\":\"Close Date\",\"name\":\"CloseDate\",\"objectName\":\"Opportunity\"},{\"dataType\":\"STRING\",\"fieldType\":\"STRING\",\"label\":\"Installation Address Details\",\"name\":\"LG_InstallationAddressDetails__c\",\"objectName\":\"Opportunity\"},{\"dataType\":\"STRING\",\"fieldType\":\"STRING\",\"label\":\"Total Extra Opties Formula\",\"name\":\"LG_TotalExtraOptiesFormula__c\",\"objectName\":\"Opportunity\"},{\"dataType\":\"STRING\",\"fieldType\":\"STRING\",\"label\":\"CongaNonRecurringAmount\",\"name\":\"LG_CongaNonRecurringAmount__c\",\"objectName\":\"Opportunity\"},{\"dataType\":\"STRING\",\"fieldType\":\"STRING\",\"label\":\"CongaAmount\",\"name\":\"LG_CongaAmount__c\",\"objectName\":\"Opportunity\"},{\"dataType\":\"STRING\",\"fieldType\":\"STRING\",\"label\":\"Today Formatted\",\"name\":\"Today_Formatted__c\",\"objectName\":\"Opportunity\"},{\"dataType\":\"STRING\",\"fieldType\":\"STRING\",\"label\":\"Today + 30 Formatted\",\"name\":\"Today_30_Formatted__c\",\"objectName\":\"Opportunity\"}],\"queries\":[]},{\"id\":\"a0bde8d5-a23d-4b94-adb8-dc51c5daac3b\",\"name\":\"Account\",\"object\":{\"name\":\"Account\",\"label\":\"Account\"},\"filter\":{\"groupOperator\":\"AND\",\"logic\":null,\"elements\":[{\"field\":{\"dataType\":\"ID\",\"fieldType\":\"ID\",\"label\":\"Account ID\",\"name\":\"Id\",\"objectName\":\"Account\"},\"operator\":{\"value\":\"=\",\"label\":\"equals\"},\"value\":{\"type\":\"VARIABLE\",\"value\":\"$accountId\"},\"id\":\"a3d2b94c-8de6-4f27-bf8c-74b129dfaab2\"}]},\"fields\":[{\"dataType\":\"ID\",\"fieldType\":\"ID\",\"label\":\"Account ID\",\"name\":\"Id\",\"objectName\":\"Account\"},{\"dataType\":\"STRING\",\"fieldType\":\"STRING\",\"label\":\"Account Name\",\"name\":\"Name\",\"objectName\":\"Account\"}],\"queries\":[]},{\"id\":\"5878012b-250f-4d7f-93a0-09caf43a5293\",\"name\":\"AdminContact:OpportunityContactRole\",\"object\":{\"name\":\"OpportunityContactRole\",\"label\":\"OpportunityContactRole\"},\"filter\":{\"groupOperator\":\"AND\",\"logic\":null,\"elements\":[{\"field\":{\"dataType\":\"ID\",\"fieldType\":\"REFERENCE\",\"label\":\"Opportunity ID\",\"name\":\"OpportunityId\",\"objectName\":\"OpportunityContactRole\",\"referenceTo\":\"Opportunity\",\"relationshipName\":\"Opportunity\"},\"operator\":{\"value\":\"=\",\"label\":\"equals\"},\"value\":{\"type\":\"VARIABLE\",\"value\":\"$recordId\"},\"id\":\"a6831c0b-0a2b-406f-a2bd-ca6f013cc70a\"},{\"field\":{\"dataType\":\"STRING\",\"fieldType\":\"PICKLIST\",\"label\":\"Role\",\"name\":\"Role\",\"objectName\":\"OpportunityContactRole\"},\"operator\":{\"value\":\"=\",\"label\":\"equals\"},\"value\":{\"type\":\"VALUE\",\"value\":\"Administrative Contact\"},\"id\":\"56cab35f-c30c-44f2-b7d0-16cbfa839317\"}]},\"fields\":[{\"dataType\":\"ID\",\"fieldType\":\"ID\",\"label\":\"Contact Role ID\",\"name\":\"Id\",\"objectName\":\"OpportunityContactRole\"},{\"dataType\":\"STRING\",\"fieldType\":\"PHONE\",\"label\":\"Business Phone\",\"name\":\"Contact.Phone\",\"objectName\":\"Contact\"},{\"dataType\":\"STRING\",\"fieldType\":\"EMAIL\",\"label\":\"Email\",\"name\":\"Contact.Email\",\"objectName\":\"Contact\"}],\"queries\":[],\"alias\":\"AdminContact\"},{\"id\":\"357be632-4c3c-48ee-992b-1ff437f1824f\",\"name\":\"MainItem:OpportunityLineItem\",\"object\":{\"name\":\"OpportunityLineItem\",\"label\":\"OpportunityLineItem\"},\"filter\":{\"groupOperator\":\"AND\",\"logic\":null,\"elements\":[{\"field\":{\"dataType\":\"BOOLEAN\",\"fieldType\":\"BOOLEAN\",\"label\":\"Main OLI\",\"name\":\"LG_MainOLI__c\",\"objectName\":\"OpportunityLineItem\"},\"operator\":{\"value\":\"=\",\"label\":\"equals\"},\"value\":{\"type\":\"VALUE\",\"value\":\"true\"},\"id\":\"28db3aeb-c998-4768-b1ac-52cd64e240bb\"},{\"field\":{\"dataType\":\"ID\",\"fieldType\":\"REFERENCE\",\"label\":\"Opportunity ID\",\"name\":\"OpportunityId\",\"objectName\":\"OpportunityLineItem\",\"referenceTo\":\"Opportunity\",\"relationshipName\":\"Opportunity\"},\"operator\":{\"value\":\"=\",\"label\":\"equals\"},\"value\":{\"type\":\"VARIABLE\",\"value\":\"$recordId\"},\"id\":\"14dc1631-4b94-4496-94ac-ac800b697d09\"}]},\"fields\":[{\"dataType\":\"ID\",\"fieldType\":\"ID\",\"label\":\"Line Item ID\",\"name\":\"Id\",\"objectName\":\"OpportunityLineItem\"},{\"dataType\":\"STRING\",\"fieldType\":\"STRING\",\"label\":\"Product Name\",\"name\":\"ProductName__c\",\"objectName\":\"OpportunityLineItem\"},{\"dataType\":\"DOUBLE\",\"fieldType\":\"CURRENCY\",\"label\":\"Sales Price\",\"name\":\"UnitPrice\",\"objectName\":\"OpportunityLineItem\"},{\"dataType\":\"STRING\",\"fieldType\":\"STRING\",\"label\":\"Contract Term Text Formula\",\"name\":\"LG_ContractTermTextFormula__c\",\"objectName\":\"OpportunityLineItem\"}],\"queries\":[],\"alias\":\"MainItem\",\"arguments\":[{\"type\":\"FIRST\",\"argument\":{\"value\":{\"type\":\"LITERAL\",\"value\":\"1\"}}}]},{\"id\":\"181e91c5-b112-4622-9a15-b523bef77a7f\",\"name\":\"MainItemDetails:LG_ProductDetail__c\",\"object\":{\"name\":\"LG_ProductDetail__c\",\"label\":\"LG_ProductDetail__c\"},\"filter\":{\"groupOperator\":\"AND\",\"logic\":null,\"elements\":[{\"field\":{\"dataType\":\"ID\",\"fieldType\":\"REFERENCE\",\"label\":\"Opportunity\",\"name\":\"LG_Opportunity__c\",\"objectName\":\"LG_ProductDetail__c\",\"referenceTo\":\"Opportunity\",\"relationshipName\":\"LG_Opportunity__r\"},\"operator\":{\"value\":\"=\",\"label\":\"equals\"},\"value\":{\"type\":\"VARIABLE\",\"value\":\"$recordId\"},\"id\":\"4b9d5703-c127-46f5-95f9-02323ff80f34\"},{\"field\":{\"dataType\":\"STRING\",\"fieldType\":\"PICKLIST\",\"label\":\"Type\",\"name\":\"LG_Type__c\",\"objectName\":\"LG_ProductDetail__c\"},\"operator\":{\"value\":\"=\",\"label\":\"equals\"},\"value\":{\"type\":\"VALUE\",\"value\":\"Bundle Detail\"},\"id\":\"e3f6a49d-b5e9-49c4-854e-c7a7c7325dab\"}]},\"fields\":[{\"dataType\":\"ID\",\"fieldType\":\"ID\",\"label\":\"Record ID\",\"name\":\"Id\",\"objectName\":\"LG_ProductDetail__c\"},{\"dataType\":\"STRING\",\"fieldType\":\"TEXTAREA\",\"label\":\"Value\",\"name\":\"LG_Value__c\",\"objectName\":\"LG_ProductDetail__c\"},{\"dataType\":\"DOUBLE\",\"fieldType\":\"DOUBLE\",\"label\":\"Sequence\",\"name\":\"LG_Sequence__c\",\"objectName\":\"LG_ProductDetail__c\"}],\"queries\":[],\"alias\":\"MainItemDetails\",\"arguments\":[{\"type\":\"SORT\",\"argument\":{\"value\":[{\"field\":{\"dataType\":\"DOUBLE\",\"fieldType\":\"DOUBLE\",\"label\":\"Sequence\",\"name\":\"LG_Sequence__c\",\"objectName\":\"LG_ProductDetail__c\"},\"order\":\"ASC\"}]}}]},{\"id\":\"0c50a627-1c05-46bd-a390-0f2ef4849fbc\",\"name\":\"PromoItems:OpportunityLineItem\",\"object\":{\"name\":\"OpportunityLineItem\",\"label\":\"OpportunityLineItem\"},\"filter\":{\"groupOperator\":\"AND\",\"logic\":null,\"elements\":[{\"field\":{\"dataType\":\"ID\",\"fieldType\":\"REFERENCE\",\"label\":\"Opportunity ID\",\"name\":\"OpportunityId\",\"objectName\":\"OpportunityLineItem\",\"referenceTo\":\"Opportunity\",\"relationshipName\":\"Opportunity\"},\"operator\":{\"value\":\"=\",\"label\":\"equals\"},\"value\":{\"type\":\"VARIABLE\",\"value\":\"$recordId\"},\"id\":\"bb873d78-cdaf-4133-9a37-1ef14a627afe\"},{\"field\":{\"dataType\":\"STRING\",\"fieldType\":\"PICKLIST\",\"label\":\"Type\",\"name\":\"LG_Type__c\",\"objectName\":\"OpportunityLineItem\"},\"operator\":{\"value\":\"=\",\"label\":\"equals\"},\"value\":{\"type\":\"VALUE\",\"value\":\"Promotional Discount\"},\"id\":\"34a4a881-2f99-4f5b-a911-4ae0bd6ae95a\"}]},\"fields\":[{\"dataType\":\"ID\",\"fieldType\":\"ID\",\"label\":\"Line Item ID\",\"name\":\"Id\",\"objectName\":\"OpportunityLineItem\"},{\"dataType\":\"STRING\",\"fieldType\":\"STRING\",\"label\":\"Product Name\",\"name\":\"PricebookEntry.Name\",\"objectName\":\"PricebookEntry\"}],\"queries\":[],\"alias\":\"PromoItems\"},{\"id\":\"55ecfa67-0df8-4479-aa1b-1755dc24a1b0\",\"name\":\"ActionItems:OpportunityLineItem\",\"object\":{\"name\":\"OpportunityLineItem\",\"label\":\"OpportunityLineItem\"},\"filter\":{\"groupOperator\":\"AND\",\"logic\":null,\"elements\":[{\"field\":{\"dataType\":\"ID\",\"fieldType\":\"REFERENCE\",\"label\":\"Opportunity ID\",\"name\":\"OpportunityId\",\"objectName\":\"OpportunityLineItem\",\"referenceTo\":\"Opportunity\",\"relationshipName\":\"Opportunity\"},\"operator\":{\"value\":\"=\",\"label\":\"equals\"},\"value\":{\"type\":\"VARIABLE\",\"value\":\"$recordId\"},\"id\":\"791c347a-3837-46c0-b272-7626417ed2d3\"},{\"id\":\"570a2c98-e9af-49b0-8049-c1b01069d0a3\",\"groupOperator\":\"OR\",\"elements\":[{\"field\":{\"dataType\":\"STRING\",\"fieldType\":\"PICKLIST\",\"label\":\"Type\",\"name\":\"LG_Type__c\",\"objectName\":\"OpportunityLineItem\"},\"operator\":{\"value\":\"=\",\"label\":\"equals\"},\"value\":{\"type\":\"VALUE\",\"value\":\"Promotional Action\"},\"id\":\"06565b4c-c2c3-468c-8479-f5fe335c7474\"},{\"field\":{\"dataType\":\"STRING\",\"fieldType\":\"PICKLIST\",\"label\":\"Type\",\"name\":\"LG_Type__c\",\"objectName\":\"OpportunityLineItem\"},\"operator\":{\"value\":\"=\",\"label\":\"equals\"},\"value\":{\"type\":\"VALUE\",\"value\":\"Closing Deal\"},\"id\":\"79f2d31b-6def-4485-92c6-e620e9605001\"}]}]},\"fields\":[{\"dataType\":\"ID\",\"fieldType\":\"ID\",\"label\":\"Line Item ID\",\"name\":\"Id\",\"objectName\":\"OpportunityLineItem\"},{\"dataType\":\"STRING\",\"fieldType\":\"STRING\",\"label\":\"Product Name\",\"name\":\"PricebookEntry.Name\",\"objectName\":\"PricebookEntry\"}],\"queries\":[],\"alias\":\"ActionItems\"},{\"id\":\"bcbd440f-b23e-493f-be36-bb6d37a2c373\",\"name\":\"ExtraItems:OpportunityLineItem\",\"object\":{\"name\":\"OpportunityLineItem\",\"label\":\"OpportunityLineItem\"},\"filter\":{\"groupOperator\":\"AND\",\"logic\":null,\"elements\":[{\"field\":{\"dataType\":\"ID\",\"fieldType\":\"REFERENCE\",\"label\":\"Opportunity ID\",\"name\":\"OpportunityId\",\"objectName\":\"OpportunityLineItem\",\"referenceTo\":\"Opportunity\",\"relationshipName\":\"Opportunity\"},\"operator\":{\"value\":\"=\",\"label\":\"equals\"},\"value\":{\"type\":\"VARIABLE\",\"value\":\"$recordId\"},\"id\":\"141c2095-7bc8-4ed1-90be-c841565f7e8a\"},{\"field\":{\"dataType\":\"BOOLEAN\",\"fieldType\":\"BOOLEAN\",\"label\":\"Main OLI\",\"name\":\"LG_MainOLI__c\",\"objectName\":\"OpportunityLineItem\"},\"operator\":{\"value\":\"=\",\"label\":\"equals\"},\"value\":{\"type\":\"VALUE\",\"value\":\"false\"},\"id\":\"f73ba0a1-3a6d-4ee4-912b-4bd106830010\"},{\"field\":{\"dataType\":\"STRING\",\"fieldType\":\"PICKLIST\",\"label\":\"Type\",\"name\":\"LG_Type__c\",\"objectName\":\"OpportunityLineItem\"},\"operator\":{\"value\":\"=\",\"label\":\"equals\"},\"value\":{\"type\":\"VALUE\",\"value\":\"Recurring\"},\"id\":\"91706fa4-3fb0-44fd-8e05-e5a9bf95ab8b\"}]},\"fields\":[{\"dataType\":\"ID\",\"fieldType\":\"ID\",\"label\":\"Line Item ID\",\"name\":\"Id\",\"objectName\":\"OpportunityLineItem\"},{\"dataType\":\"STRING\",\"fieldType\":\"STRING\",\"label\":\"Product Name\",\"name\":\"ProductName__c\",\"objectName\":\"OpportunityLineItem\"},{\"dataType\":\"DOUBLE\",\"fieldType\":\"CURRENCY\",\"label\":\"Total Price\",\"name\":\"TotalPrice\",\"objectName\":\"OpportunityLineItem\"}],\"queries\":[],\"alias\":\"ExtraItems\",\"arguments\":[{\"type\":\"SORT\",\"argument\":{\"value\":[{\"field\":{\"dataType\":\"DOUBLE\",\"fieldType\":\"DOUBLE\",\"label\":\"Sequence\",\"name\":\"Sequence__c\",\"objectName\":\"OpportunityLineItem\"},\"order\":\"ASC\"}]}}]},{\"id\":\"10d5b9b9-2a52-4f27-ab71-efe2e5cbd5eb\",\"name\":\"Basket:cscfga__Product_Basket__c\",\"object\":{\"name\":\"cscfga__Product_Basket__c\",\"label\":\"cscfga__Product_Basket__c\"},\"filter\":{\"groupOperator\":\"AND\",\"logic\":null,\"elements\":[{\"field\":{\"dataType\":\"ID\",\"fieldType\":\"REFERENCE\",\"label\":\"Opportunity\",\"name\":\"cscfga__Opportunity__c\",\"objectName\":\"cscfga__Product_Basket__c\",\"referenceTo\":\"Opportunity\",\"relationshipName\":\"cscfga__Opportunity__r\"},\"operator\":{\"value\":\"=\",\"label\":\"equals\"},\"value\":{\"type\":\"VARIABLE\",\"value\":\"$recordId\"},\"id\":\"bd1864ba-c9cf-41e4-a1c8-b2a69560771f\"},{\"id\":\"e0ced353-f4c3-418b-8237-176c2c9b70d6\",\"groupOperator\":\"OR\",\"elements\":[{\"field\":{\"dataType\":\"BOOLEAN\",\"fieldType\":\"BOOLEAN\",\"label\":\"Synchronised with Opportunity\",\"name\":\"csordtelcoa__Synchronised_with_Opportunity__c\",\"objectName\":\"cscfga__Product_Basket__c\"},\"operator\":{\"value\":\"=\",\"label\":\"equals\"},\"value\":{\"type\":\"VALUE\",\"value\":\"true\"},\"id\":\"8f56ffb1-8211-4e3c-adc7-3970d54b1f20\"},{\"field\":{\"dataType\":\"BOOLEAN\",\"fieldType\":\"BOOLEAN\",\"label\":\"Synchronised With Opportunity\",\"name\":\"csbb__Synchronised_With_Opportunity__c\",\"objectName\":\"cscfga__Product_Basket__c\"},\"operator\":{\"value\":\"=\",\"label\":\"equals\"},\"value\":{\"type\":\"VALUE\",\"value\":\"true\"},\"id\":\"387ece59-b6db-4011-86c9-4a8f0330501f\"}]}]},\"fields\":[{\"dataType\":\"ID\",\"fieldType\":\"ID\",\"label\":\"Record ID\",\"name\":\"Id\",\"objectName\":\"cscfga__Product_Basket__c\"},{\"dataType\":\"ID\",\"fieldType\":\"REFERENCE\",\"label\":\"Selected Billing Account\",\"name\":\"LG_Selected_Billing_Account__c\",\"objectName\":\"cscfga__Product_Basket__c\",\"referenceTo\":\"csconta__Billing_Account__c\",\"relationshipName\":\"LG_Selected_Billing_Account__r\"},{\"dataType\":\"STRING\",\"fieldType\":\"STRING\",\"label\":\"Billing Street\",\"name\":\"LG_Selected_Billing_Account__r.csconta__Billing_Street__c\",\"objectName\":\"csconta__Billing_Account__c\"},{\"dataType\":\"STRING\",\"fieldType\":\"STRING\",\"label\":\"House Number\",\"name\":\"LG_Selected_Billing_Account__r.LG_HouseNumber__c\",\"objectName\":\"csconta__Billing_Account__c\"},{\"dataType\":\"STRING\",\"fieldType\":\"STRING\",\"label\":\"House Number Extension\",\"name\":\"LG_Selected_Billing_Account__r.LG_HouseNumberExtension__c\",\"objectName\":\"csconta__Billing_Account__c\"},{\"dataType\":\"STRING\",\"fieldType\":\"STRING\",\"label\":\"Postcode\",\"name\":\"LG_Selected_Billing_Account__r.csconta__Postcode__c\",\"objectName\":\"csconta__Billing_Account__c\"},{\"dataType\":\"STRING\",\"fieldType\":\"STRING\",\"label\":\"Billing City\",\"name\":\"LG_Selected_Billing_Account__r.csconta__Billing_City__c\",\"objectName\":\"csconta__Billing_Account__c\"},{\"dataType\":\"STRING\",\"fieldType\":\"STRING\",\"label\":\"Bank Account Number (IBAN)\",\"name\":\"LG_Selected_Billing_Account__r.LG_BankAccountNumberIBAN__c\",\"objectName\":\"csconta__Billing_Account__c\"},{\"dataType\":\"STRING\",\"fieldType\":\"EMAIL\",\"label\":\"Billing Email Address\",\"name\":\"LG_Selected_Billing_Account__r.LG_BillingEmailAddress__c\",\"objectName\":\"csconta__Billing_Account__c\"}],\"queries\":[],\"alias\":\"Basket\"},{\"id\":\"e31cad5a-2c21-4c51-9d80-f19cbd939af7\",\"name\":\"MainProductConfig:cscfga__Product_Configuration__c\",\"object\":{\"name\":\"cscfga__Product_Configuration__c\",\"label\":\"cscfga__Product_Configuration__c\"},\"filter\":{\"groupOperator\":\"AND\",\"logic\":null,\"elements\":[{\"field\":{\"dataType\":\"STRING\",\"fieldType\":\"STRING\",\"label\":\"Product Family\",\"name\":\"cscfga__Product_Family__c\",\"objectName\":\"cscfga__Product_Configuration__c\"},\"operator\":{\"value\":\"=\",\"label\":\"equals\"},\"value\":{\"type\":\"VALUE\",\"value\":\"Zakelijk Internet\"},\"id\":\"undefined.1\"},{\"field\":{\"dataType\":\"BOOLEAN\",\"fieldType\":\"BOOLEAN\",\"label\":\"Synchronised with Opportunity\",\"name\":\"Synchronised_with_Opportunity__c\",\"objectName\":\"cscfga__Product_Configuration__c\"},\"operator\":{\"value\":\"=\",\"label\":\"equals\"},\"value\":{\"type\":\"VALUE\",\"value\":\"true\"},\"id\":\"undefined.2\"},{\"field\":{\"dataType\":\"STRING\",\"fieldType\":\"STRING\",\"label\":\"Opportunity ID\",\"name\":\"Opportunity_ID__c\",\"objectName\":\"cscfga__Product_Configuration__c\"},\"operator\":{\"value\":\"=\",\"label\":\"equals\"},\"value\":{\"type\":\"VARIABLE\",\"value\":\"$oppId\"},\"id\":\"072977c9-4113-40d6-ac62-b22673960255\"}]},\"fields\":[{\"dataType\":\"ID\",\"fieldType\":\"ID\",\"label\":\"Record ID\",\"name\":\"Id\",\"objectName\":\"cscfga__Product_Configuration__c\"},{\"dataType\":\"STRING\",\"fieldType\":\"STRING\",\"label\":\"Product Family\",\"name\":\"cscfga__Product_Family__c\",\"objectName\":\"cscfga__Product_Configuration__c\"},{\"dataType\":\"ID\",\"fieldType\":\"REFERENCE\",\"label\":\"Opportunity\",\"name\":\"cscfga__Product_Basket__r.cscfga__Opportunity__c\",\"objectName\":\"cscfga__Product_Basket__c\",\"referenceTo\":\"Opportunity\",\"relationshipName\":\"cscfga__Opportunity__r\"}],\"queries\":[],\"alias\":\"MainProductConfig\",\"arguments\":[{\"type\":\"FIRST\",\"argument\":{\"value\":{\"type\":\"LITERAL\",\"value\":\"1\"}}}]}]",
      "mmdoc__Document_Definition__c" : "{\n\tOpportunity(Id: $recordId) {\n\t\tId\n\t\tName\n\t\tOpportunity_Number__c\n\t\tCloseDateFormated__c\n\t\tCloseDate\n\t\tLG_InstallationAddressDetails__c\n\t\tLG_TotalExtraOptiesFormula__c\n\t\tLG_CongaNonRecurringAmount__c\n\t\tLG_CongaAmount__c\n\t\tToday_Formatted__c\n\t\tToday_30_Formatted__c\n\t}\n\tAccount(Id: $accountId) {\n\t\tId\n\t\tName\n\t}\n\tAdminContact:OpportunityContactRole(OpportunityId: $recordId Role: \"Administrative Contact\") {\n\t\tId\n\t\tContact.Phone\n\t\tContact.Email\n\t}\n\tMainItem:OpportunityLineItem(first: 1 LG_MainOLI__c: true OpportunityId: $recordId) {\n\t\tId\n\t\tProductName__c\n\t\tUnitPrice\n\t\tLG_ContractTermTextFormula__c\n\t}\n\tMainItemDetails:LG_ProductDetail__c(sort: [{field:LG_Sequence__c, order: ASC}] LG_Opportunity__c: $recordId LG_Type__c: \"Bundle Detail\") {\n\t\tId\n\t\tLG_Value__c\n\t\tLG_Sequence__c\n\t}\n\tPromoItems:OpportunityLineItem(OpportunityId: $recordId LG_Type__c: \"Promotional Discount\") {\n\t\tId\n\t\tPricebookEntry.Name\n\t}\n\tActionItems:OpportunityLineItem(filter: {AND: [{OpportunityId: $recordId}, {OR: [{LG_Type__c: \"Promotional Action\"}, {LG_Type__c: \"Closing Deal\"}]}]}) {\n\t\tId\n\t\tPricebookEntry.Name\n\t}\n\tExtraItems:OpportunityLineItem(sort: [{field:Sequence__c, order: ASC}] OpportunityId: $recordId LG_MainOLI__c: false LG_Type__c: \"Recurring\") {\n\t\tId\n\t\tProductName__c\n\t\tTotalPrice\n\t}\n\tBasket:cscfga__Product_Basket__c(filter: {AND: [{cscfga__Opportunity__c: $recordId}, {OR: [{csordtelcoa__Synchronised_with_Opportunity__c: true}, {csbb__Synchronised_With_Opportunity__c: true}]}]}) {\n\t\tId\n\t\tLG_Selected_Billing_Account__c\n\t\tLG_Selected_Billing_Account__r.csconta__Billing_Street__c\n\t\tLG_Selected_Billing_Account__r.LG_HouseNumber__c\n\t\tLG_Selected_Billing_Account__r.LG_HouseNumberExtension__c\n\t\tLG_Selected_Billing_Account__r.csconta__Postcode__c\n\t\tLG_Selected_Billing_Account__r.csconta__Billing_City__c\n\t\tLG_Selected_Billing_Account__r.LG_BankAccountNumberIBAN__c\n\t\tLG_Selected_Billing_Account__r.LG_BillingEmailAddress__c\n\t}\n\tMainProductConfig:cscfga__Product_Configuration__c(first: 1 cscfga__Product_Family__c: \"Zakelijk Internet\" Synchronised_with_Opportunity__c: true Opportunity_ID__c: $oppId) {\n\t\tId\n\t\tcscfga__Product_Family__c\n\t\tcscfga__Product_Basket__r.cscfga__Opportunity__c\n\t}\n}",
      "Name" : "Ziggo Quote Query"
    },
    "Id" : "aFG5r000000CaR7GAK",
    "mmdoc__Document_Query__c" : "aFJ5r0000004C93GAE",
    "mmdoc__Reuse_File__c" : false,
    "Name" : "Ziggo Documents"
  } ]
}