[
	{
		"attributes": {
			"type": "Account",
			"url": "/services/data/v41.0/sobjects/Account/001D0000016SV5EIAW"
		},
		"Name": "De Grote Kikker B.v.",
		"AnnualRevenue": 48000,
		"BillingCity": "AMSTELVEEN",
		"BillingPostalCode": "1181 AB",
		"BillingStreet": "Bos en Vaartlaan 40",
		"IsPartner": false,
		"NumberOfEmployees": 1,
		"Phone": "0206630081",
		"RecordTypeId": "012D0000000QPRaIAO",
		"Sic": "6420",
		"Type": "Customer",
		"Account_Owner_IsActive__c": false,
		"Active_Ban_Count__c": 2,
		"BAN_Number__c": "345206371",
		"BAN_status__c": "Opened",
		"Bankruptcy_Indicator__c": false,
		"Date_of_Establishment__c": "2007-09-05",
		"DUNS_Number__c": "387352623",
		"INT_UniqueAccount_ID__c": "2757029",
		"isOwnerChanged__c": false,
		"ITW_Indicator__c": false,
		"KVK_number__c": "34272837",
		"Legal_Structure__c": "Besloten vennootschap met gewone structuur",
		"Legal_Structure_Code__c": "41",
		"Location_Status__c": "C",
		"Managed_by_D_B__c": true,
		"NumberOfEmployeesConcern__c": 1,
		"Site_Update__c": false,
		"Trigger_Olbico_Update__c": false,
		"Unify_Ref_Id__c": "100002389",
		"VAT_Number__c": "NL 817922799B01",
		"VGE__c": false,
		"VIP_Partner__c": false,
		"Visiting_City__c": "AMSTELVEEN",
		"Visiting_Country__c": "NL",
		"Visiting_Housenumber1__c": 40,
		"Visiting_Postal_Code__c": "1181AB",
		"Visiting_street__c": "Bos en Vaartlaan",
		"Id": "001D0000016SV5EIAW"
	},
	{
		"attributes": {
			"type": "Account",
			"url": "/services/data/v41.0/sobjects/Account/001D000000vabACIAY"
		},
		"Name": "De Nieuwe Schaar",
		"AnnualRevenue": 250000,
		"BillingCity": "LEIDEN",
		"BillingPostalCode": "2311CW",
		"BillingStreet": "Breestraat 112",
		"IsPartner": false,
		"NumberOfEmployees": 3,
		"Phone": "0650883443",
		"RecordTypeId": "012D0000000QPRaIAO",
		"Sic": "9529",
		"Type": "Customer",
		"Account_Owner_IsActive__c": false,
		"Active_Ban_Count__c": 2,
		"BAN_Number__c": "329659829",
		"BAN_status__c": "Opened",
		"Bankruptcy_Indicator__c": false,
		"Dealer_code__c": "00261165",
		"DUNS_Number__c": "386786003",
		"INT_UniqueAccount_ID__c": "2565141",
		"isOwnerChanged__c": false,
		"ITW_Indicator__c": false,
		"KVK_number__c": "28109414",
		"Legal_Structure__c": "Eenmanszaak",
		"Legal_Structure_Code__c": "01",
		"Location_Status__c": "B",
		"Managed_by_D_B__c": true,
		"NumberOfEmployeesConcern__c": 3,
		"Site_Update__c": false,
		"Trigger_Olbico_Update__c": false,
		"Unify_Ref_Id__c": "100003361",
		"VGE__c": false,
		"VIP_Partner__c": false,
		"Visiting_City__c": "LEIDEN",
		"Visiting_Country__c": "NL",
		"Visiting_Housenumber1__c": 112,
		"Visiting_Postal_Code__c": "2311CW",
		"Visiting_street__c": "Breestraat",
		"Id": "001D000000vabACIAY"
	},
	{
		"attributes": {
			"type": "Account",
			"url": "/services/data/v41.0/sobjects/Account/0015E00000E7uFXQAZ"
		},
		"Name": "TOSCA TA BSS - Customer 7 Enterprise",
		"AnnualRevenue": 58868356,
		"BillingCity": "MOERDIJK",
		"BillingCountry": "Netherlands",
		"BillingPostalCode": "4780AD",
		"BillingState": "Noord-Brabant",
		"BillingStreet": "Postbus",
		"Description": "Construction materials, nec",
		"Fax": "0887658889",
		"Industry": "Wholesale Durables and Non-Durables",
		"IsPartner": false,
		"NumberOfEmployees": 255,
		"Phone": "0887658888",
		"RecordTypeId": "012D0000000QPRaIAO",
		"Sic": "5039",
		"Type": "Customer",
		"Account_Owner_IsActive__c": true,
		"Active_Ban_Count__c": 1,
		"Bankruptcy_Indicator__c": false,
		"BIK_Code__c": "46739",
		"Date_of_Establishment__c": "2007-03-20",
		"Dealer_code__c": "00990698",
		"DUNS_Number__c": "000002003",
		"Frame_Work_Agreement__c": "ML02012005056",
		"Framework_agreement_date__c": "2012-04-12",
		"isOwnerChanged__c": true,
		"ITW_Indicator__c": false,
		"KVK_number__c": "00002003",
		"Legal_Structure__c": "Besloten vennootschap met gewone structuur",
		"Legal_Structure_Code__c": "41",
		"Location_Status__c": "C",
		"Managed_by_D_B__c": true,
		"NPS_Score__c": 9,
		"NumberOfEmployeesConcern__c": 2376,
		"Risk_Change_Date__c": "2014-11-13",
		"SBI_Description__c": "Groothandel in bouwmaterialen algemeen assortiment",
		"SBI_Main_Description__c": "Groot- en detailhandel; reparatie van auto's",
		"Screen_quantity__c": 58,
		"Server_quantity__c": 10,
		"Site_Update__c": false,
		"Soho_Vertical__c": "Overig",
		"Trigger_Olbico_Update__c": false,
		"Type_of_Change__c": "Claim",
		"Unify_Account_SubType__c": "CRP",
		"Unify_Account_Type__c": "C",
		"Unify_Ref_Id__c": "11451088",
		"VAT_Number__c": "NL 817783453B01",
		"VGE__c": false,
		"VIP_Partner__c": false,
		"Visiting_City__c": "ZEVENBERGEN",
		"Visiting_Country__c": "NL",
		"Visiting_Housenumber1__c": 5,
		"Visiting_Housenumber_Suffix__c": "a",
		"Visiting_Postal_Code__c": "4761RL",
		"Visiting_street__c": "Tradeboulevard",
		"Id": "0015E00000E7uFXQAZ"
	},
	{
		"attributes": {
			"type": "Account",
			"url": "/services/data/v41.0/sobjects/Account/001D000000vaqMbIAI"
		},
		"Name": "Kiwi Online",
		"AnnualRevenue": 68000,
		"BillingCity": "TERNEUZEN",
		"BillingPostalCode": "4530 AM",
		"BillingStreet": "Postbus 500",
		"IsPartner": false,
		"NumberOfEmployees": 1,
		"Phone": "0115613757",
		"RecordTypeId": "012D0000000QPRaIAO",
		"Sic": "6312",
		"Type": "Customer",
		"Website": "www.kiwi-online.nl",
		"Account_Owner_IsActive__c": false,
		"Active_Ban_Count__c": 2,
		"Active_ONE_ONX__c": "One Net Enterprise",
		"BAN_Number__c": "361342472",
		"BAN_status__c": "Opened",
		"Bankruptcy_Indicator__c": false,
		"Date_of_Establishment__c": "2016-11-02",
		"Dealer_code__c": "00800189",
		"DUNS_Number__c": "022047398",
		"INT_UniqueAccount_ID__c": "2654155",
		"isOwnerChanged__c": false,
		"ITW_Indicator__c": false,
		"KVK_number__c": "22047398",
		"Legal_Structure__c": "Eenmanszaak",
		"Legal_Structure_Code__c": "01",
		"Location_Status__c": "C",
		"Managed_by_D_B__c": true,
		"NumberOfEmployeesConcern__c": 1,
		"Previous_Owner__c": "Ritel filiaal Terneuzen",
		"Site_Update__c": false,
		"Trigger_Olbico_Update__c": false,
		"Type_of_Change__c": "claim general",
		"Unify_Account_SubType__c": "SOH",
		"Unify_Account_Type__c": "B",
		"Unify_Ref_Id__c": "100002000",
		"VGE__c": false,
		"VIP_Partner__c": false,
		"Visiting_City__c": "TERNEUZEN",
		"Visiting_Country__c": "NL",
		"Visiting_Housenumber1__c": 2,
		"Visiting_Postal_Code__c": "4532LC",
		"Visiting_street__c": "van der Waalsstraat",
		"Id": "001D000000vaqMbIAI"
	},
	{
		"attributes": {
			"type": "Account",
			"url": "/services/data/v41.0/sobjects/Account/0015E00000E7uFNQAZ"
		},
		"Name": "TOSCA TA BSS - Customer 1 SOHO",
		"AnnualRevenue": 58868356,
		"BillingCity": "MOERDIJK",
		"BillingCountry": "Netherlands",
		"BillingPostalCode": "4780AD",
		"BillingState": "Noord-Brabant",
		"BillingStreet": "Postbus",
		"Description": "Construction materials, nec",
		"Fax": "0165522030",
		"Industry": "Wholesale Durables and Non-Durables",
		"IsPartner": false,
		"NumberOfEmployees": 5,
		"Phone": "0887651900",
		"RecordTypeId": "012D0000000QPRaIAO",
		"Sic": "5039",
		"Type": "Customer",
		"Account_Owner_IsActive__c": true,
		"Active_Ban_Count__c": 1,
		"Bankruptcy_Indicator__c": false,
		"BIK_Code__c": "46739",
		"Date_of_Establishment__c": "2007-03-20",
		"Dealer_code__c": "00990698",
		"DUNS_Number__c": "000002002",
		"Frame_Work_Agreement__c": "ML02012005056",
		"Framework_agreement_date__c": "2012-04-12",
		"isOwnerChanged__c": true,
		"ITW_Indicator__c": true,
		"KVK_number__c": "00002002",
		"Legal_Structure__c": "Besloten vennootschap met gewone structuur",
		"Legal_Structure_Code__c": "41",
		"Location_Status__c": "C",
		"Managed_by_D_B__c": true,
		"NPS_Score__c": 9,
		"Risk_Change_Date__c": "2014-11-13",
		"SBI_Description__c": "Groothandel in bouwmaterialen algemeen assortiment",
		"SBI_Main_Description__c": "Groot- en detailhandel; reparatie van auto's",
		"Screen_quantity__c": 58,
		"Server_quantity__c": 10,
		"Site_Update__c": false,
		"Soho_Vertical__c": "Overig",
		"Trigger_Olbico_Update__c": false,
		"Type_of_Change__c": "Claim",
		"Unify_Account_SubType__c": "SOH",
		"Unify_Account_Type__c": "B",
		"Unify_Ref_Id__c": "11451096",
		"VAT_Number__c": "NL 817783453B01",
		"VGE__c": false,
		"VIP_Partner__c": false,
		"Visiting_City__c": "ZEVENBERGEN",
		"Visiting_Country__c": "NL",
		"Visiting_Housenumber1__c": 5,
		"Visiting_Housenumber_Suffix__c": "a",
		"Visiting_Postal_Code__c": "4761RL",
		"Visiting_street__c": "Tradeboulevard",
		"Id": "0015E00000E7uFNQAZ"
	},
	{
		"attributes": {
			"type": "Account",
			"url": "/services/data/v41.0/sobjects/Account/0015E00000E7uF8QAJ"
		},
		"Name": "TOSCA TA BSS - Customer 2 VGE",
		"AnnualRevenue": 58868356,
		"BillingCity": "MOERDIJK",
		"BillingCountry": "Netherlands",
		"BillingPostalCode": "4780AD",
		"BillingState": "Noord-Brabant",
		"BillingStreet": "Postbus",
		"Description": "Construction materials, nec",
		"Fax": "0888888889",
		"Industry": "Wholesale Durables and Non-Durables",
		"IsPartner": false,
		"NumberOfEmployees": 347,
		"Phone": "0888888888",
		"RecordTypeId": "012D0000000QPRaIAO",
		"Sic": "5039",
		"Type": "Customer",
		"Account_Owner_IsActive__c": true,
		"Active_Ban_Count__c": 1,
		"Bankruptcy_Indicator__c": false,
		"BIK_Code__c": "46739",
		"Date_of_Establishment__c": "2007-03-20",
		"Dealer_code__c": "00990698",
		"DUNS_Number__c": "000002001",
		"Frame_Work_Agreement__c": "ML02012005056",
		"Framework_agreement_date__c": "2012-04-12",
		"isOwnerChanged__c": true,
		"ITW_Indicator__c": true,
		"KVK_number__c": "00002001",
		"Legal_Structure__c": "Besloten vennootschap met gewone structuur",
		"Legal_Structure_Code__c": "41",
		"Location_Status__c": "C",
		"Managed_by_D_B__c": true,
		"NPS_Score__c": 9,
		"NumberOfEmployeesConcern__c": 2376,
		"Risk_Change_Date__c": "2014-11-13",
		"SBI_Description__c": "Groothandel in bouwmaterialen algemeen assortiment",
		"SBI_Main_Description__c": "Groot- en detailhandel; reparatie van auto's",
		"Screen_quantity__c": 58,
		"Server_quantity__c": 10,
		"Site_Update__c": false,
		"Soho_Vertical__c": "Overig",
		"Trigger_Olbico_Update__c": false,
		"Type_of_Change__c": "Claim",
		"Unify_Account_SubType__c": "VGN",
		"Unify_Account_Type__c": "C",
		"Unify_Ref_Id__c": "11451090",
		"VAT_Number__c": "NL 817783453B01",
		"VGE__c": true,
		"VIP_Partner__c": false,
		"Visiting_City__c": "ZEVENBERGEN",
		"Visiting_Country__c": "NL",
		"Visiting_Housenumber1__c": 5,
		"Visiting_Housenumber_Suffix__c": "a",
		"Visiting_Postal_Code__c": "4761RL",
		"Visiting_street__c": "Tradeboulevard",
		"Id": "0015E00000E7uF8QAJ"
	},
	{
		"attributes": {
			"type": "Account",
			"url": "/services/data/v41.0/sobjects/Account/0015E00000E7uFhQAJ"
		},
		"Name": "TOSCA TA BSS - Customer 5 Business",
		"AnnualRevenue": 58868356,
		"BillingCity": "MOERDIJK",
		"BillingCountry": "Netherlands",
		"BillingPostalCode": "4780AD",
		"BillingState": "Noord-Brabant",
		"BillingStreet": "Postbus",
		"Description": "Construction materials, nec",
		"Fax": "0165522999",
		"Industry": "Wholesale Durables and Non-Durables",
		"IsPartner": false,
		"NumberOfEmployees": 75,
		"Phone": "0887651999",
		"RecordTypeId": "012D0000000QPRaIAO",
		"Sic": "5039",
		"Type": "Customer",
		"Account_Owner_IsActive__c": true,
		"Active_Ban_Count__c": 1,
		"Bankruptcy_Indicator__c": false,
		"BIK_Code__c": "46739",
		"Date_of_Establishment__c": "2007-03-20",
		"Dealer_code__c": "00990698",
		"DUNS_Number__c": "000002004",
		"Frame_Work_Agreement__c": "ML02012005056",
		"Framework_agreement_date__c": "2012-04-12",
		"isOwnerChanged__c": true,
		"ITW_Indicator__c": true,
		"KVK_number__c": "00002004",
		"Legal_Structure__c": "Besloten vennootschap met gewone structuur",
		"Legal_Structure_Code__c": "41",
		"Location_Status__c": "C",
		"Managed_by_D_B__c": true,
		"NPS_Score__c": 9,
		"NumberOfEmployeesConcern__c": 2376,
		"Risk_Change_Date__c": "2014-11-13",
		"SBI_Description__c": "Groothandel in bouwmaterialen algemeen assortiment",
		"SBI_Main_Description__c": "Groot- en detailhandel; reparatie van auto's",
		"Screen_quantity__c": 58,
		"Server_quantity__c": 10,
		"Site_Update__c": false,
		"Soho_Vertical__c": "Overig",
		"Trigger_Olbico_Update__c": false,
		"Type_of_Change__c": "Claim",
		"Unify_Account_SubType__c": "DEF",
		"Unify_Account_Type__c": "B",
		"Unify_Ref_Id__c": "11451093",
		"VAT_Number__c": "NL 817783453B01",
		"VGE__c": false,
		"VIP_Partner__c": false,
		"Visiting_City__c": "ZEVENBERGEN",
		"Visiting_Country__c": "NL",
		"Visiting_Housenumber1__c": 5,
		"Visiting_Housenumber_Suffix__c": "a",
		"Visiting_Postal_Code__c": "4761RL",
		"Visiting_street__c": "Tradeboulevard",
		"Id": "0015E00000E7uFhQAJ"
	}
]