[ 
   { 
      "attributes":{ 
         "type":"Preferred_Supplier__c",
         "url":"/services/data/v40.0/sobjects/Preferred_Supplier__c/a0f5700001bcUeMAAU"
      },
      "Order__c":2,
      "Technology_Type__c":"SDSL.BIS (single-pair)",
      "UniqueId__c":"SDSL.BIS (single-pair)KPNWEAS",
      "Vendor__c":"KPNWEAS",
      "ExternalID__c":"PS-11-ABCDEF1",
      "Id":"a0f5700001bcUeMAAU"
   },
   { 
      "attributes":{ 
         "type":"Preferred_Supplier__c",
         "url":"/services/data/v40.0/sobjects/Preferred_Supplier__c/a0f5700001bcUeRAAU"
      },
      "Order__c":3,
      "Technology_Type__c":"SDSL.BIS (single-pair)",
      "UniqueId__c":"SDSL.BIS (single-pair)TELE2-BUS",
      "Vendor__c":"TELE2-BUS",
      "ExternalID__c":"PS-11-ABCDEF2",
      "Id":"a0f5700001bcUeRAAU"
   },
   { 
      "attributes":{ 
         "type":"Preferred_Supplier__c",
         "url":"/services/data/v40.0/sobjects/Preferred_Supplier__c/a0f5700001bcUeWAAU"
      },
      "Order__c":2,
      "Technology_Type__c":"SDSL.BIS (bonded)",
      "UniqueId__c":"SDSL.BIS (bonded)KPNWEAS",
      "Vendor__c":"KPNWEAS",
      "ExternalID__c":"PS-11-ABCDEF3",
      "Id":"a0f5700001bcUeWAAU"
   },
   { 
      "attributes":{ 
         "type":"Preferred_Supplier__c",
         "url":"/services/data/v40.0/sobjects/Preferred_Supplier__c/a0f5700001bcUebAAE"
      },
      "Order__c":3,
      "Technology_Type__c":"SDSL.BIS (bonded)",
      "UniqueId__c":"SDSL.BIS (bonded)TELE2-BUS",
      "Vendor__c":"TELE2-BUS",
      "ExternalID__c":"PS-11-ABCDEF4",
      "Id":"a0f5700001bcUebAAE"
   },
   { 
      "attributes":{ 
         "type":"Preferred_Supplier__c",
         "url":"/services/data/v40.0/sobjects/Preferred_Supplier__c/a0f570000137GWZAA2"
      },
      "Order__c":2,
      "Technology_Type__c":"Fiber",
      "UniqueId__c":"FiberZIGGO",
      "Vendor__c":"ZIGGO",
      "ExternalID__c":"PS-11-ABCDEF5",
      "Id":"a0f570000137GWZAA2"
   },
   { 
      "attributes":{ 
         "type":"Preferred_Supplier__c",
         "url":"/services/data/v40.0/sobjects/Preferred_Supplier__c/a0fD000000IF7ZJIA1"
      },
      "Order__c":1,
      "Technology_Type__c":"SDSL",
      "UniqueId__c":"SDSLBBNED",
      "Vendor__c":"BBNED",
      "ExternalID__c":"PS-11-ABCDEF6",
      "Id":"a0fD000000IF7ZJIA1"
   },
   { 
      "attributes":{ 
         "type":"Preferred_Supplier__c",
         "url":"/services/data/v40.0/sobjects/Preferred_Supplier__c/a0fD000000IF7ZLIA1"
      },
      "Order__c":3,
      "Technology_Type__c":"Fiber",
      "UniqueId__c":"FiberVF-FIBER",
      "Vendor__c":"VF-FIBER",
      "ExternalID__c":"PS-11-ABCDEF7",
      "Id":"a0fD000000IF7ZLIA1"
   },
   { 
      "attributes":{ 
         "type":"Preferred_Supplier__c",
         "url":"/services/data/v40.0/sobjects/Preferred_Supplier__c/a0fD000000IF7ZMIA1"
      },
      "Order__c":5,
      "Technology_Type__c":"ADSL",
      "UniqueId__c":"ADSLKPN-BITSTREAM",
      "Vendor__c":"KPN-BITSTREAM",
      "ExternalID__c":"PS-11-ABCDEF8",
      "Id":"a0fD000000IF7ZMIA1"
   },
   { 
      "attributes":{ 
         "type":"Preferred_Supplier__c",
         "url":"/services/data/v40.0/sobjects/Preferred_Supplier__c/a0fD000000IF7ZNIA1"
      },
      "Order__c":5,
      "Technology_Type__c":"ADSL2+",
      "UniqueId__c":"ADSL2+KPN-BITSTREAM",
      "Vendor__c":"KPN-BITSTREAM",
      "ExternalID__c":"PS-11-ABCDEF9",
      "Id":"a0fD000000IF7ZNIA1"
   },
   { 
      "attributes":{ 
         "type":"Preferred_Supplier__c",
         "url":"/services/data/v40.0/sobjects/Preferred_Supplier__c/a0fD000000IF7ZOIA1"
      },
      "Order__c":2,
      "Technology_Type__c":"SDSL",
      "UniqueId__c":"SDSLKPN-BITSTREAM",
      "Vendor__c":"KPN-BITSTREAM",
      "ExternalID__c":"PS-11-ABCDEF10",
      "Id":"a0fD000000IF7ZOIA1"
   },
   { 
      "attributes":{ 
         "type":"Preferred_Supplier__c",
         "url":"/services/data/v40.0/sobjects/Preferred_Supplier__c/a0fD000000IF7ZPIA1"
      },
      "Order__c":4,
      "Technology_Type__c":"VDSL2",
      "UniqueId__c":"VDSL2KPN-BITSTREAM",
      "Vendor__c":"KPN-BITSTREAM",
      "ExternalID__c":"PS-11-ABCDEF11",
      "Id":"a0fD000000IF7ZPIA1"
   },
   { 
      "attributes":{ 
         "type":"Preferred_Supplier__c",
         "url":"/services/data/v40.0/sobjects/Preferred_Supplier__c/a0fD000000IF7ZQIA1"
      },
      "Order__c":4,
      "Technology_Type__c":"Fiber",
      "UniqueId__c":"FiberEF-FIBER",
      "Vendor__c":"EF-FIBER",
      "ExternalID__c":"PS-11-ABCDEF12",
      "Id":"a0fD000000IF7ZQIA1"
   },
   { 
      "attributes":{ 
         "type":"Preferred_Supplier__c",
         "url":"/services/data/v40.0/sobjects/Preferred_Supplier__c/a0fD000000IF7ZRIA1"
      },
      "Order__c":6,
      "Technology_Type__c":"ADSL",
      "UniqueId__c":"ADSLKPN-WADSLG",
      "Vendor__c":"KPN-WADSLG",
      "ExternalID__c":"PS-11-ABCDEF13",
      "Id":"a0fD000000IF7ZRIA1"
   },
   { 
      "attributes":{ 
         "type":"Preferred_Supplier__c",
         "url":"/services/data/v40.0/sobjects/Preferred_Supplier__c/a0fD000000IF7ZSIA1"
      },
      "Order__c":6,
      "Technology_Type__c":"ADSL2+",
      "UniqueId__c":"ADSL2+KPN-WADSLG",
      "Vendor__c":"KPN-WADSLG",
      "ExternalID__c":"PS-11-ABCDEF14",
      "Id":"a0fD000000IF7ZSIA1"
   },
   { 
      "attributes":{ 
         "type":"Preferred_Supplier__c",
         "url":"/services/data/v40.0/sobjects/Preferred_Supplier__c/a0fD000000IF7ZUIA1"
      },
      "Order__c":5,
      "Technology_Type__c":"VDSL2",
      "UniqueId__c":"VDSL2KPN-WADSLG",
      "Vendor__c":"KPN-WADSLG",
      "ExternalID__c":"PS-11-ABCDEF15",
      "Id":"a0fD000000IF7ZUIA1"
   },
   { 
      "attributes":{ 
         "type":"Preferred_Supplier__c",
         "url":"/services/data/v40.0/sobjects/Preferred_Supplier__c/a0fD000000IF7ZVIA1"
      },
      "Order__c":5,
      "Technology_Type__c":"Fiber",
      "UniqueId__c":"FiberKPNWEAS",
      "Vendor__c":"KPNWEAS",
      "ExternalID__c":"PS-11-ABCDEF16",
      "Id":"a0fD000000IF7ZVIA1"
   },
   { 
      "attributes":{ 
         "type":"Preferred_Supplier__c",
         "url":"/services/data/v40.0/sobjects/Preferred_Supplier__c/a0fD000000UXW6pIAH"
      },
      "Order__c":2,
      "Technology_Type__c":"SDSLbis",
      "UniqueId__c":"SDSLbisTELE2-BUS",
      "Vendor__c":"TELE2-BUS",
      "ExternalID__c":"PS-11-ABCDEF17",
      "Id":"a0fD000000UXW6pIAH"
   },
   { 
      "attributes":{ 
         "type":"Preferred_Supplier__c",
         "url":"/services/data/v40.0/sobjects/Preferred_Supplier__c/a0fD000000UXW6kIAH"
      },
      "Order__c":4,
      "Technology_Type__c":"ADSL2+",
      "UniqueId__c":"ADSL2+TELE2-BUS",
      "Vendor__c":"TELE2-BUS",
      "ExternalID__c":"PS-11-ABCDEF18",
      "Id":"a0fD000000UXW6kIAH"
   },
   { 
      "attributes":{ 
         "type":"Preferred_Supplier__c",
         "url":"/services/data/v40.0/sobjects/Preferred_Supplier__c/a0fD000000UWfu4IAD"
      },
      "Order__c":1,
      "Technology_Type__c":"SDSLbis",
      "UniqueId__c":"SDSLbisKPNWEAS",
      "Vendor__c":"KPNWEAS",
      "ExternalID__c":"PS-11-ABCDEF19",
      "Id":"a0fD000000UWfu4IAD"
   },
   { 
      "attributes":{ 
         "type":"Preferred_Supplier__c",
         "url":"/services/data/v40.0/sobjects/Preferred_Supplier__c/a0f5700000prXhOAAU"
      },
      "Order__c":2,
      "Technology_Type__c":"VDSL2",
      "UniqueId__c":"VDSL2DLM Entry",
      "Vendor__c":"DLM Entry",
      "ExternalID__c":"PS-11-ABCDEF20",
      "Id":"a0f5700000prXhOAAU"
   },
   { 
      "attributes":{ 
         "type":"Preferred_Supplier__c",
         "url":"/services/data/v40.0/sobjects/Preferred_Supplier__c/a0f5700000prXhPAAU"
      },
      "Order__c":3,
      "Technology_Type__c":"VDSL2",
      "UniqueId__c":"VDSL2DLM Premium",
      "Vendor__c":"DLM Premium",
      "ExternalID__c":"PS-11-ABCDEF21",
      "Id":"a0f5700000prXhPAAU"
   },
   { 
      "attributes":{ 
         "type":"Preferred_Supplier__c",
         "url":"/services/data/v40.0/sobjects/Preferred_Supplier__c/a0f5700000prXhQAAU"
      },
      "Order__c":2,
      "Technology_Type__c":"ADSL2+",
      "UniqueId__c":"ADSL2+DLM Entry",
      "Vendor__c":"DLM Entry",
      "ExternalID__c":"PS-11-ABCDEF22",
      "Id":"a0f5700000prXhQAAU"
   },
   { 
      "attributes":{ 
         "type":"Preferred_Supplier__c",
         "url":"/services/data/v40.0/sobjects/Preferred_Supplier__c/a0f5700000prXhRAAU"
      },
      "Order__c":3,
      "Technology_Type__c":"ADSL2+",
      "UniqueId__c":"ADSL2+DLM Premium",
      "Vendor__c":"DLM Premium",
      "ExternalID__c":"PS-11-ABCDEF23",
      "Id":"a0f5700000prXhRAAU"
   },
   { 
      "attributes":{ 
         "type":"Preferred_Supplier__c",
         "url":"/services/data/v40.0/sobjects/Preferred_Supplier__c/a0f5700000prXhSAAU"
      },
      "Order__c":2,
      "Technology_Type__c":"VVDSL2",
      "UniqueId__c":"VVDSL2DLM Entry",
      "Vendor__c":"DLM Entry",
      "ExternalID__c":"PS-11-ABCDEF24",
      "Id":"a0f5700000prXhSAAU"
   },
   { 
      "attributes":{ 
         "type":"Preferred_Supplier__c",
         "url":"/services/data/v40.0/sobjects/Preferred_Supplier__c/a0f5700000prXhTAAU"
      },
      "Order__c":3,
      "Technology_Type__c":"VVDSL2",
      "UniqueId__c":"VVDSL2DLM Premium",
      "Vendor__c":"DLM Premium",
      "ExternalID__c":"PS-11-ABCDEF25",
      "Id":"a0f5700000prXhTAAU"
   },
   { 
      "attributes":{ 
         "type":"Preferred_Supplier__c",
         "url":"/services/data/v40.0/sobjects/Preferred_Supplier__c/a0f5700000prXhUAAU"
      },
      "Order__c":2,
      "Technology_Type__c":"BVDSL2",
      "UniqueId__c":"BVDSL2DLM Entry",
      "Vendor__c":"DLM Entry",
      "ExternalID__c":"PS-11-ABCDEF26",
      "Id":"a0f5700000prXhUAAU"
   },
   { 
      "attributes":{ 
         "type":"Preferred_Supplier__c",
         "url":"/services/data/v40.0/sobjects/Preferred_Supplier__c/a0f5700000prXhVAAU"
      },
      "Order__c":3,
      "Technology_Type__c":"BVDSL2",
      "UniqueId__c":"BVDSL2DLM Premium",
      "Vendor__c":"DLM Premium",
      "ExternalID__c":"PS-11-ABCDEF27",
      "Id":"a0f5700000prXhVAAU"
   },
   { 
      "attributes":{ 
         "type":"Preferred_Supplier__c",
         "url":"/services/data/v40.0/sobjects/Preferred_Supplier__c/a0f5700000prXhWAAU"
      },
      "Order__c":2,
      "Technology_Type__c":"BVVDSL2",
      "UniqueId__c":"BVVDSL2DLM Entry",
      "Vendor__c":"DLM Entry",
      "ExternalID__c":"PS-11-ABCDEF28",
      "Id":"a0f5700000prXhWAAU"
   },
   { 
      "attributes":{ 
         "type":"Preferred_Supplier__c",
         "url":"/services/data/v40.0/sobjects/Preferred_Supplier__c/a0f5700000prXhXAAU"
      },
      "Order__c":3,
      "Technology_Type__c":"BVVDSL2",
      "UniqueId__c":"BVVDSL2DLM Premium",
      "Vendor__c":"DLM Premium",
      "ExternalID__c":"PS-11-ABCDEF29",
      "Id":"a0f5700000prXhXAAU"
   }
]